WA DOE Oil Spills
…
Locations with highest amount of oil spills:

Code

spills_cut |>
  group_by(Location) %>%
  summarize(
    total_quantity = sum(Quantity_total, na.rm = TRUE),
    latest_date = max(Date_incident, na.rm = TRUE)
  ) %>%
  arrange(desc(total_quantity))

# A tibble: 1,739 × 3
   Location                                   total_quantity latest_date        
   <chr>                                               <dbl> <dttm>             
 1 US NAVY PUGET SOUND NAVAL SHIPYARD                100000  2024-03-06 00:00:00
 2 <NA>                                               86700. 2024-09-30 00:00:00
 3 Naval Base - Kitsap Bangor                         12488  2024-03-11 00:00:00
 4 Covith-Williams Co                                  8000  2021-12-14 00:00:00
 5 North First Street Hwy 12 on ramp                   6000  2022-03-01 00:00:00
 6 Off San Juan Island - see Lat/Long                  3895  2022-08-13 00:00:00
 7 Coleman Oil Wenatchee Bulk Plant                    3840  2017-03-17 00:00:00
 8 PS- ELLIOTT BAY - Seattle                           3773. 2024-05-14 00:00:00
 9 Grays Harbor Entrance, North of North Jet…          3465  2016-04-15 00:00:00
10 Columbia Generating Station                         3412  2024-09-18 00:00:00
# ℹ 1,729 more rows
